; Engine configuration file.
; It's best edited using the editor UI and not directly,
; since the parameters that go here are not all obvious.
;
; Format:
;   [section] ; section goes between []
;   param=value ; assign values to parameters

config_version=4

_global_script_classes=[  ]
_global_script_class_icons={
}

[application]

config/name="FPS Basic"
run/main_scene="res://maps/Map_01.tscn"
boot_splash/image="res://icon.png"
config/icon="res://icon.png"

[autoload]

Global="*res://scripts/global.gd"

[display]

window/size/fullscreen=true

[input]

move_forward={
"deadzone": 0.5,
"events": [ Object(InputEventKey,"resource_local_to_scene":false,"resource_name":"","device":0,"alt":false,"shift":false,"control":false,"meta":false,"command":false,"pressed":false,"scancode":87,"physical_scancode":0,"unicode":0,"echo":false,"script":null)
, Object(InputEventJoypadButton,"resource_local_to_scene":false,"resource_name":"","device":-1,"button_index":12,"pressure":0.0,"pressed":false,"script":null)
 ]
}
move_backward={
"deadzone": 0.5,
"events": [ Object(InputEventKey,"resource_local_to_scene":false,"resource_name":"","device":0,"alt":false,"shift":false,"control":false,"meta":false,"command":false,"pressed":false,"scancode":83,"physical_scancode":0,"unicode":0,"echo":false,"script":null)
, Object(InputEventJoypadButton,"resource_local_to_scene":false,"resource_name":"","device":-1,"button_index":13,"pressure":0.0,"pressed":false,"script":null)
 ]
}
move_left={
"deadzone": 0.5,
"events": [ Object(InputEventKey,"resource_local_to_scene":false,"resource_name":"","device":0,"alt":false,"shift":false,"control":false,"meta":false,"command":false,"pressed":false,"scancode":65,"physical_scancode":0,"unicode":0,"echo":false,"script":null)
, Object(InputEventJoypadButton,"resource_local_to_scene":false,"resource_name":"","device":-1,"button_index":14,"pressure":0.0,"pressed":false,"script":null)
 ]
}
move_right={
"deadzone": 0.5,
"events": [ Object(InputEventKey,"resource_local_to_scene":false,"resource_name":"","device":0,"alt":false,"shift":false,"control":false,"meta":false,"command":false,"pressed":false,"scancode":68,"physical_scancode":0,"unicode":0,"echo":false,"script":null)
, Object(InputEventJoypadButton,"resource_local_to_scene":false,"resource_name":"","device":-1,"button_index":15,"pressure":0.0,"pressed":false,"script":null)
 ]
}
jump={
"deadzone": 0.5,
"events": [ Object(InputEventKey,"resource_local_to_scene":false,"resource_name":"","device":0,"alt":false,"shift":false,"control":false,"meta":false,"command":false,"pressed":false,"scancode":32,"physical_scancode":0,"unicode":0,"echo":false,"script":null)
, Object(InputEventJoypadButton,"resource_local_to_scene":false,"resource_name":"","device":-1,"button_index":1,"pressure":0.0,"pressed":false,"script":null)
 ]
}
run={
"deadzone": 0.5,
"events": [ Object(InputEventKey,"resource_local_to_scene":false,"resource_name":"","device":0,"alt":false,"shift":false,"control":false,"meta":false,"command":false,"pressed":false,"scancode":16777237,"physical_scancode":0,"unicode":0,"echo":false,"script":null)
 ]
}
activate={
"deadzone": 0.5,
"events": [ Object(InputEventMouseButton,"resource_local_to_scene":false,"resource_name":"","device":-1,"alt":false,"shift":false,"control":false,"meta":false,"command":false,"button_mask":0,"position":Vector2( 0, 0 ),"global_position":Vector2( 0, 0 ),"factor":1.0,"button_index":1,"pressed":false,"doubleclick":false,"script":null)
 ]
}

[rendering]

environment/default_environment="res://default_env.tres"
