[gd_scene load_steps=5 format=2]

[ext_resource path="res://assest/objects/wallphotos/wall_photo.gltf" type="PackedScene" id=1]
[ext_resource path="res://assest/objects/wallphotos/IMG_20230202_082442322.jpg" type="Texture" id=2]

[sub_resource type="SpatialMaterial" id=1]
albedo_texture = ExtResource( 2 )

[sub_resource type="ArrayMesh" id=2]
resource_name = "wall_photo_IMG_20230202_082423016"
surfaces/0 = {
"aabb": AABB( -0.671916, 0, -0.5, 1.34383, 0.0887788, 1 ),
"array_data": PoolByteArray( 176, 2, 44, 191, 26, 215, 35, 60, 71, 225, 250, 62, 129, 0, 127, 63, 0, 0, 235, 59, 176, 2, 44, 191, 26, 215, 35, 60, 71, 225, 250, 62, 167, 219, 127, 63, 0, 0, 235, 59, 176, 2, 44, 191, 26, 215, 35, 60, 71, 225, 250, 62, 167, 0, 127, 193, 0, 0, 235, 59, 176, 2, 44, 191, 26, 215, 35, 60, 71, 225, 250, 62, 183, 230, 36, 241, 0, 0, 235, 59, 84, 115, 41, 191, 0, 0, 0, 0, 71, 225, 250, 62, 219, 167, 89, 212, 158, 31, 235, 59, 84, 115, 41, 191, 0, 0, 0, 0, 71, 225, 250, 62, 230, 183, 91, 209, 158, 31, 235, 59, 84, 115, 41, 191, 0, 0, 0, 0, 71, 225, 250, 62, 0, 129, 127, 193, 158, 31, 235, 59, 84, 115, 41, 191, 0, 0, 0, 0, 71, 225, 250, 62, 0, 167, 127, 193, 158, 31, 235, 59, 84, 115, 41, 191, 26, 215, 35, 60, 0, 0, 0, 63, 219, 0, 127, 193, 158, 31, 0, 60, 84, 115, 41, 191, 26, 215, 35, 60, 0, 0, 0, 63, 230, 230, 91, 192, 158, 31, 0, 60, 84, 115, 41, 191, 26, 215, 35, 60, 0, 0, 0, 63, 0, 0, 127, 193, 158, 31, 0, 60, 84, 115, 41, 191, 26, 215, 35, 60, 0, 0, 0, 63, 0, 219, 127, 193, 158, 31, 0, 60, 189, 66, 43, 191, 100, 243, 63, 59, 72, 225, 250, 62, 167, 219, 127, 63, 0, 0, 235, 59, 189, 66, 43, 191, 100, 243, 63, 59, 72, 225, 250, 62, 183, 230, 127, 193, 0, 0, 235, 59, 189, 66, 43, 191, 100, 243, 63, 59, 72, 225, 250, 62, 219, 167, 89, 212, 0, 0, 235, 59, 189, 66, 43, 191, 100, 243, 63, 59, 72, 225, 250, 62, 230, 183, 92, 211, 0, 0, 235, 59, 179, 237, 42, 191, 122, 126, 138, 59, 7, 214, 253, 62, 183, 230, 36, 241, 75, 20, 253, 59, 179, 237, 42, 191, 122, 126, 138, 59, 7, 214, 253, 62, 230, 183, 91, 209, 75, 20, 253, 59, 179, 237, 42, 191, 122, 126, 138, 59, 7, 214, 253, 62, 230, 230, 91, 192, 75, 20, 253, 59, 84, 115, 41, 191, 100, 243, 63, 59, 26, 128, 254, 62, 230, 183, 90, 208, 158, 31, 0, 60, 84, 115, 41, 191, 100, 243, 63, 59, 26, 128, 254, 62, 230, 230, 127, 193, 158, 31, 0, 60, 84, 115, 41, 191, 100, 243, 63, 59, 26, 128, 254, 62, 0, 167, 127, 193, 158, 31, 0, 60, 84, 115, 41, 191, 100, 243, 63, 59, 26, 128, 254, 62, 0, 219, 127, 193, 158, 31, 0, 60, 189, 66, 43, 191, 26, 215, 35, 60, 26, 128, 254, 62, 167, 0, 127, 193, 0, 0, 0, 60, 189, 66, 43, 191, 26, 215, 35, 60, 26, 128, 254, 62, 183, 230, 36, 241, 0, 0, 0, 60, 189, 66, 43, 191, 26, 215, 35, 60, 26, 128, 254, 62, 219, 0, 127, 193, 0, 0, 0, 60, 189, 66, 43, 191, 26, 215, 35, 60, 26, 128, 254, 62, 230, 230, 91, 192, 0, 0, 0, 60, 84, 115, 41, 63, 27, 215, 35, 60, 0, 0, 0, 63, 0, 0, 127, 193, 240, 59, 0, 60, 84, 115, 41, 63, 27, 215, 35, 60, 0, 0, 0, 63, 0, 219, 127, 193, 240, 59, 0, 60, 84, 115, 41, 63, 27, 215, 35, 60, 0, 0, 0, 63, 26, 230, 63, 161, 240, 59, 0, 60, 84, 115, 41, 63, 27, 215, 35, 60, 0, 0, 0, 63, 37, 0, 127, 193, 240, 59, 0, 60, 84, 115, 41, 63, 0, 0, 0, 0, 71, 225, 250, 62, 0, 129, 127, 193, 240, 59, 235, 59, 84, 115, 41, 63, 0, 0, 0, 0, 71, 225, 250, 62, 0, 167, 127, 193, 240, 59, 235, 59, 84, 115, 41, 63, 0, 0, 0, 0, 71, 225, 250, 62, 26, 183, 94, 175, 240, 59, 235, 59, 84, 115, 41, 63, 0, 0, 0, 0, 71, 225, 250, 62, 37, 167, 89, 174, 240, 59, 235, 59, 176, 2, 44, 63, 26, 215, 35, 60, 71, 225, 250, 62, 73, 230, 222, 17, 255, 59, 235, 59, 176, 2, 44, 63, 26, 215, 35, 60, 71, 225, 250, 62, 89, 0, 0, 1, 255, 59, 235, 59, 176, 2, 44, 63, 26, 215, 35, 60, 71, 225, 250, 62, 89, 219, 219, 18, 255, 59, 235, 59, 176, 2, 44, 63, 26, 215, 35, 60, 71, 225, 250, 62, 127, 0, 0, 1, 255, 59, 235, 59, 84, 115, 41, 63, 102, 243, 63, 59, 26, 128, 254, 62, 0, 167, 127, 193, 240, 59, 0, 60, 84, 115, 41, 63, 102, 243, 63, 59, 26, 128, 254, 62, 0, 219, 127, 193, 240, 59, 0, 60, 84, 115, 41, 63, 102, 243, 63, 59, 26, 128, 254, 62, 26, 230, 255, 147, 240, 59, 0, 60, 84, 115, 41, 63, 102, 243, 63, 59, 26, 128, 254, 62, 26, 183, 96, 175, 240, 59, 0, 60, 179, 237, 42, 63, 122, 126, 138, 59, 7, 214, 253, 62, 26, 230, 63, 161, 253, 59, 253, 59, 179, 237, 42, 63, 122, 126, 138, 59, 7, 214, 253, 62, 26, 183, 94, 175, 253, 59, 253, 59, 179, 237, 42, 63, 122, 126, 138, 59, 7, 214, 253, 62, 73, 230, 222, 17, 253, 59, 253, 59, 189, 66, 43, 63, 98, 243, 63, 59, 72, 225, 250, 62, 26, 183, 91, 176, 0, 60, 235, 59, 189, 66, 43, 63, 98, 243, 63, 59, 72, 225, 250, 62, 37, 167, 89, 174, 0, 60, 235, 59, 189, 66, 43, 63, 98, 243, 63, 59, 72, 225, 250, 62, 73, 230, 222, 17, 0, 60, 235, 59, 189, 66, 43, 63, 98, 243, 63, 59, 72, 225, 250, 62, 89, 219, 219, 18, 0, 60, 235, 59, 189, 66, 43, 63, 26, 215, 35, 60, 26, 128, 254, 62, 26, 230, 125, 211, 0, 60, 0, 60, 189, 66, 43, 63, 26, 215, 35, 60, 26, 128, 254, 62, 37, 0, 127, 193, 0, 60, 0, 60, 189, 66, 43, 63, 26, 215, 35, 60, 26, 128, 254, 62, 73, 230, 30, 148, 0, 60, 0, 60, 189, 66, 43, 63, 26, 215, 35, 60, 26, 128, 254, 62, 89, 0, 127, 193, 0, 60, 0, 60, 176, 2, 44, 191, 26, 215, 35, 60, 71, 225, 250, 190, 129, 0, 127, 63, 0, 0, 30, 33, 176, 2, 44, 191, 26, 215, 35, 60, 71, 225, 250, 190, 167, 219, 127, 63, 0, 0, 30, 33, 176, 2, 44, 191, 26, 215, 35, 60, 71, 225, 250, 190, 129, 37, 127, 63, 0, 0, 30, 33, 176, 2, 44, 191, 26, 215, 35, 60, 71, 225, 250, 190, 156, 203, 222, 109, 0, 0, 30, 33, 84, 115, 41, 191, 27, 215, 35, 60, 0, 0, 0, 191, 129, 89, 127, 63, 158, 31, 0, 0, 84, 115, 41, 191, 27, 215, 35, 60, 0, 0, 0, 191, 156, 156, 63, 225, 158, 31, 0, 0, 84, 115, 41, 191, 27, 215, 35, 60, 0, 0, 0, 191, 167, 129, 127, 63, 158, 31, 0, 0, 84, 115, 41, 191, 27, 215, 35, 60, 0, 0, 0, 191, 127, 127, 127, 63, 158, 31, 0, 0, 84, 115, 41, 191, 0, 0, 0, 0, 71, 225, 250, 190, 219, 167, 89, 212, 158, 31, 30, 33, 84, 115, 41, 191, 0, 0, 0, 0, 71, 225, 250, 190, 203, 156, 94, 211, 158, 31, 30, 33, 84, 115, 41, 191, 0, 0, 0, 0, 71, 225, 250, 190, 219, 129, 127, 193, 158, 31, 30, 33, 84, 115, 41, 191, 0, 0, 0, 0, 71, 225, 250, 190, 0, 129, 127, 193, 158, 31, 30, 33, 189, 66, 43, 191, 26, 215, 35, 60, 26, 128, 254, 190, 129, 37, 127, 63, 0, 0, 0, 0, 189, 66, 43, 191, 26, 215, 35, 60, 26, 128, 254, 190, 156, 203, 30, 238, 0, 0, 0, 0, 189, 66, 43, 191, 26, 215, 35, 60, 26, 128, 254, 190, 129, 89, 127, 63, 0, 0, 0, 0, 189, 66, 43, 191, 26, 215, 35, 60, 26, 128, 254, 190, 156, 156, 125, 175, 0, 0, 0, 0, 179, 237, 42, 191, 122, 126, 138, 59, 7, 214, 253, 190, 156, 203, 222, 109, 75, 20, 197, 21, 179, 237, 42, 191, 122, 126, 138, 59, 7, 214, 253, 190, 203, 156, 94, 211, 75, 20, 197, 21, 179, 237, 42, 191, 122, 126, 138, 59, 7, 214, 253, 190, 156, 156, 63, 225, 75, 20, 197, 21, 84, 115, 41, 191, 102, 243, 63, 59, 26, 128, 254, 190, 203, 156, 96, 211, 158, 31, 0, 0, 84, 115, 41, 191, 102, 243, 63, 59, 26, 128, 254, 190, 156, 156, 255, 239, 158, 31, 0, 0, 84, 115, 41, 191, 102, 243, 63, 59, 26, 128, 254, 190, 167, 129, 127, 63, 158, 31, 0, 0, 84, 115, 41, 191, 102, 243, 63, 59, 26, 128, 254, 190, 219, 129, 127, 193, 158, 31, 0, 0, 189, 66, 43, 191, 98, 243, 63, 59, 72, 225, 250, 190, 167, 219, 127, 63, 0, 0, 30, 33, 189, 66, 43, 191, 98, 243, 63, 59, 72, 225, 250, 190, 156, 203, 222, 109, 0, 0, 30, 33, 189, 66, 43, 191, 98, 243, 63, 59, 72, 225, 250, 190, 219, 167, 89, 212, 0, 0, 30, 33, 189, 66, 43, 191, 98, 243, 63, 59, 72, 225, 250, 190, 203, 156, 91, 210, 0, 0, 30, 33, 176, 2, 44, 63, 26, 215, 35, 60, 71, 225, 250, 190, 100, 203, 36, 145, 0, 60, 30, 33, 176, 2, 44, 63, 26, 215, 35, 60, 71, 225, 250, 190, 127, 37, 127, 63, 0, 60, 30, 33, 176, 2, 44, 63, 26, 215, 35, 60, 71, 225, 250, 190, 89, 219, 219, 18, 0, 60, 30, 33, 176, 2, 44, 63, 26, 215, 35, 60, 71, 225, 250, 190, 127, 0, 0, 1, 0, 60, 30, 33, 84, 115, 41, 63, 0, 0, 0, 0, 71, 225, 250, 190, 219, 129, 127, 193, 240, 59, 30, 33, 84, 115, 41, 63, 0, 0, 0, 0, 71, 225, 250, 190, 0, 129, 127, 193, 240, 59, 30, 33, 84, 115, 41, 63, 0, 0, 0, 0, 71, 225, 250, 190, 53, 156, 91, 177, 240, 59, 30, 33, 84, 115, 41, 63, 0, 0, 0, 0, 71, 225, 250, 190, 37, 167, 89, 174, 240, 59, 30, 33, 84, 115, 41, 63, 26, 215, 35, 60, 0, 0, 0, 191, 167, 129, 127, 63, 240, 59, 0, 0, 84, 115, 41, 63, 26, 215, 35, 60, 0, 0, 0, 191, 127, 127, 127, 63, 240, 59, 0, 0, 84, 115, 41, 63, 26, 215, 35, 60, 0, 0, 0, 191, 100, 156, 63, 161, 240, 59, 0, 0, 84, 115, 41, 63, 26, 215, 35, 60, 0, 0, 0, 191, 127, 89, 127, 63, 240, 59, 0, 0, 189, 66, 43, 63, 100, 243, 63, 59, 72, 225, 250, 190, 53, 156, 92, 175, 0, 60, 30, 33, 189, 66, 43, 63, 100, 243, 63, 59, 72, 225, 250, 190, 37, 167, 89, 174, 0, 60, 30, 33, 189, 66, 43, 63, 100, 243, 63, 59, 72, 225, 250, 190, 100, 203, 221, 17, 0, 60, 30, 33, 189, 66, 43, 63, 100, 243, 63, 59, 72, 225, 250, 190, 89, 219, 127, 193, 0, 60, 30, 33, 179, 237, 42, 63, 122, 126, 138, 59, 7, 214, 253, 190, 100, 156, 63, 161, 253, 59, 197, 21, 179, 237, 42, 63, 122, 126, 138, 59, 7, 214, 253, 190, 53, 156, 91, 177, 253, 59, 197, 21, 179, 237, 42, 63, 122, 126, 138, 59, 7, 214, 253, 190, 100, 203, 36, 145, 253, 59, 197, 21, 84, 115, 41, 63, 100, 243, 63, 59, 26, 128, 254, 190, 167, 129, 127, 63, 240, 59, 0, 0, 84, 115, 41, 63, 100, 243, 63, 59, 26, 128, 254, 190, 219, 129, 127, 193, 240, 59, 0, 0, 84, 115, 41, 63, 100, 243, 63, 59, 26, 128, 254, 190, 100, 156, 221, 130, 240, 59, 0, 0, 84, 115, 41, 63, 100, 243, 63, 59, 26, 128, 254, 190, 53, 156, 90, 178, 240, 59, 0, 0, 189, 66, 43, 63, 26, 215, 35, 60, 26, 128, 254, 190, 100, 156, 91, 194, 0, 60, 0, 0, 189, 66, 43, 63, 26, 215, 35, 60, 26, 128, 254, 190, 127, 89, 127, 63, 0, 60, 0, 0, 189, 66, 43, 63, 26, 215, 35, 60, 26, 128, 254, 190, 100, 203, 36, 145, 0, 60, 0, 0, 189, 66, 43, 63, 26, 215, 35, 60, 26, 128, 254, 190, 127, 37, 127, 63, 0, 60, 0, 0, 176, 2, 44, 191, 202, 86, 161, 61, 71, 225, 250, 62, 129, 0, 127, 63, 0, 0, 235, 59, 176, 2, 44, 191, 202, 86, 161, 61, 71, 225, 250, 62, 167, 37, 127, 63, 0, 0, 235, 59, 176, 2, 44, 191, 202, 86, 161, 61, 71, 225, 250, 62, 167, 0, 127, 193, 0, 0, 235, 59, 176, 2, 44, 191, 202, 86, 161, 61, 71, 225, 250, 62, 183, 26, 36, 111, 0, 0, 235, 59, 84, 115, 41, 191, 202, 86, 161, 61, 0, 0, 0, 63, 219, 0, 127, 193, 158, 31, 0, 60, 84, 115, 41, 191, 202, 86, 161, 61, 0, 0, 0, 63, 230, 26, 63, 95, 158, 31, 0, 60, 84, 115, 41, 191, 202, 86, 161, 61, 0, 0, 0, 63, 0, 0, 127, 193, 158, 31, 0, 60, 84, 115, 41, 191, 202, 86, 161, 61, 0, 0, 0, 63, 0, 37, 127, 193, 158, 31, 0, 60, 84, 115, 41, 191, 173, 209, 181, 61, 71, 225, 250, 62, 219, 89, 89, 82, 158, 31, 235, 59, 84, 115, 41, 191, 173, 209, 181, 61, 71, 225, 250, 62, 230, 73, 91, 79, 158, 31, 235, 59, 84, 115, 41, 191, 173, 209, 181, 61, 71, 225, 250, 62, 0, 89, 127, 63, 158, 31, 235, 59, 84, 115, 41, 191, 173, 209, 181, 61, 71, 225, 250, 62, 0, 127, 127, 63, 158, 31, 235, 59, 189, 66, 43, 191, 202, 86, 161, 61, 26, 128, 254, 62, 167, 0, 127, 193, 0, 0, 0, 60, 189, 66, 43, 191, 202, 86, 161, 61, 26, 128, 254, 62, 183, 26, 36, 111, 0, 0, 0, 60, 189, 66, 43, 191, 202, 86, 161, 61, 26, 128, 254, 62, 219, 0, 127, 193, 0, 0, 0, 60, 189, 66, 43, 191, 202, 86, 161, 61, 26, 128, 254, 62, 230, 26, 91, 62, 0, 0, 0, 60, 179, 237, 42, 191, 198, 41, 173, 61, 7, 214, 253, 62, 183, 26, 36, 111, 75, 20, 253, 59, 179, 237, 42, 191, 198, 41, 173, 61, 7, 214, 253, 62, 230, 73, 91, 79, 75, 20, 253, 59, 179, 237, 42, 191, 198, 41, 173, 61, 7, 214, 253, 62, 230, 26, 63, 95, 75, 20, 253, 59, 84, 115, 41, 191, 18, 210, 175, 61, 26, 128, 254, 62, 230, 73, 90, 78, 158, 31, 0, 60, 84, 115, 41, 191, 18, 210, 175, 61, 26, 128, 254, 62, 230, 26, 221, 126, 158, 31, 0, 60, 84, 115, 41, 191, 18, 210, 175, 61, 26, 128, 254, 62, 0, 37, 127, 193, 158, 31, 0, 60, 84, 115, 41, 191, 18, 210, 175, 61, 26, 128, 254, 62, 0, 89, 127, 63, 158, 31, 0, 60, 189, 66, 43, 191, 18, 210, 175, 61, 72, 225, 250, 62, 167, 37, 127, 63, 0, 0, 235, 59, 189, 66, 43, 191, 18, 210, 175, 61, 72, 225, 250, 62, 183, 26, 127, 193, 0, 0, 235, 59, 189, 66, 43, 191, 18, 210, 175, 61, 72, 225, 250, 62, 219, 89, 89, 82, 0, 0, 235, 59, 189, 66, 43, 191, 18, 210, 175, 61, 72, 225, 250, 62, 230, 73, 92, 81, 0, 0, 235, 59, 84, 115, 41, 63, 202, 86, 161, 61, 0, 0, 0, 63, 0, 0, 127, 193, 240, 59, 0, 60, 84, 115, 41, 63, 202, 86, 161, 61, 0, 0, 0, 63, 0, 37, 127, 193, 240, 59, 0, 60, 84, 115, 41, 63, 202, 86, 161, 61, 0, 0, 0, 63, 26, 26, 125, 81, 240, 59, 0, 60, 84, 115, 41, 63, 202, 86, 161, 61, 0, 0, 0, 63, 37, 0, 127, 193, 240, 59, 0, 60, 176, 2, 44, 63, 202, 86, 161, 61, 71, 225, 250, 62, 73, 26, 30, 18, 255, 59, 235, 59, 176, 2, 44, 63, 202, 86, 161, 61, 71, 225, 250, 62, 89, 0, 0, 1, 255, 59, 235, 59, 176, 2, 44, 63, 202, 86, 161, 61, 71, 225, 250, 62, 89, 37, 219, 148, 255, 59, 235, 59, 176, 2, 44, 63, 202, 86, 161, 61, 71, 225, 250, 62, 127, 0, 0, 1, 255, 59, 235, 59, 84, 115, 41, 63, 173, 209, 181, 61, 71, 225, 250, 62, 0, 89, 127, 63, 240, 59, 235, 59, 84, 115, 41, 63, 173, 209, 181, 61, 71, 225, 250, 62, 0, 127, 127, 63, 240, 59, 235, 59, 84, 115, 41, 63, 173, 209, 181, 61, 71, 225, 250, 62, 26, 73, 94, 45, 240, 59, 235, 59, 84, 115, 41, 63, 173, 209, 181, 61, 71, 225, 250, 62, 37, 89, 89, 44, 240, 59, 235, 59, 189, 66, 43, 63, 202, 86, 161, 61, 26, 128, 254, 62, 26, 26, 125, 81, 0, 60, 0, 60, 189, 66, 43, 63, 202, 86, 161, 61, 26, 128, 254, 62, 37, 0, 127, 193, 0, 60, 0, 60, 189, 66, 43, 63, 202, 86, 161, 61, 26, 128, 254, 62, 73, 26, 30, 18, 0, 60, 0, 60, 189, 66, 43, 63, 202, 86, 161, 61, 26, 128, 254, 62, 89, 0, 0, 1, 0, 60, 0, 60, 179, 237, 42, 63, 198, 41, 173, 61, 7, 214, 253, 62, 26, 26, 125, 81, 253, 59, 253, 59, 179, 237, 42, 63, 198, 41, 173, 61, 7, 214, 253, 62, 26, 73, 94, 45, 253, 59, 253, 59, 179, 237, 42, 63, 198, 41, 173, 61, 7, 214, 253, 62, 73, 26, 30, 18, 253, 59, 253, 59, 189, 66, 43, 63, 18, 210, 175, 61, 72, 225, 250, 62, 26, 73, 91, 46, 0, 60, 235, 59, 189, 66, 43, 63, 18, 210, 175, 61, 72, 225, 250, 62, 37, 89, 89, 44, 0, 60, 235, 59, 189, 66, 43, 63, 18, 210, 175, 61, 72, 225, 250, 62, 73, 26, 222, 147, 0, 60, 235, 59, 189, 66, 43, 63, 18, 210, 175, 61, 72, 225, 250, 62, 89, 37, 219, 148, 0, 60, 235, 59, 84, 115, 41, 63, 18, 210, 175, 61, 26, 128, 254, 62, 0, 37, 127, 193, 240, 59, 0, 60, 84, 115, 41, 63, 18, 210, 175, 61, 26, 128, 254, 62, 0, 89, 127, 63, 240, 59, 0, 60, 84, 115, 41, 63, 18, 210, 175, 61, 26, 128, 254, 62, 26, 26, 127, 193, 240, 59, 0, 60, 84, 115, 41, 63, 18, 210, 175, 61, 26, 128, 254, 62, 26, 73, 96, 45, 240, 59, 0, 60, 176, 2, 44, 191, 202, 86, 161, 61, 71, 225, 250, 190, 129, 0, 127, 63, 0, 0, 30, 33, 176, 2, 44, 191, 202, 86, 161, 61, 71, 225, 250, 190, 167, 37, 127, 63, 0, 0, 30, 33, 176, 2, 44, 191, 202, 86, 161, 61, 71, 225, 250, 190, 129, 37, 127, 63, 0, 0, 30, 33, 176, 2, 44, 191, 202, 86, 161, 61, 71, 225, 250, 190, 156, 53, 30, 108, 0, 0, 30, 33, 84, 115, 41, 191, 173, 209, 181, 61, 71, 225, 250, 190, 219, 89, 89, 82, 158, 31, 30, 33, 84, 115, 41, 191, 173, 209, 181, 61, 71, 225, 250, 190, 203, 100, 94, 81, 158, 31, 30, 33, 84, 115, 41, 191, 173, 209, 181, 61, 71, 225, 250, 190, 37, 127, 127, 63, 158, 31, 30, 33, 84, 115, 41, 191, 173, 209, 181, 61, 71, 225, 250, 190, 0, 127, 127, 63, 158, 31, 30, 33, 84, 115, 41, 191, 202, 86, 161, 61, 0, 0, 0, 191, 129, 89, 127, 63, 158, 31, 0, 0, 84, 115, 41, 191, 202, 86, 161, 61, 0, 0, 0, 191, 156, 100, 63, 95, 158, 31, 0, 0, 84, 115, 41, 191, 202, 86, 161, 61, 0, 0, 0, 191, 127, 127, 127, 63, 158, 31, 0, 0, 84, 115, 41, 191, 202, 86, 161, 61, 0, 0, 0, 191, 89, 127, 127, 63, 158, 31, 0, 0, 189, 66, 43, 191, 18, 210, 175, 61, 72, 225, 250, 190, 167, 37, 127, 63, 0, 0, 30, 33, 189, 66, 43, 191, 18, 210, 175, 61, 72, 225, 250, 190, 156, 53, 222, 239, 0, 0, 30, 33, 189, 66, 43, 191, 18, 210, 175, 61, 72, 225, 250, 190, 219, 89, 89, 82, 0, 0, 30, 33, 189, 66, 43, 191, 18, 210, 175, 61, 72, 225, 250, 190, 203, 100, 91, 80, 0, 0, 30, 33, 179, 237, 42, 191, 198, 41, 173, 61, 7, 214, 253, 190, 156, 53, 30, 108, 75, 20, 197, 21, 179, 237, 42, 191, 198, 41, 173, 61, 7, 214, 253, 190, 203, 100, 94, 81, 75, 20, 197, 21, 179, 237, 42, 191, 198, 41, 173, 61, 7, 214, 253, 190, 156, 100, 63, 95, 75, 20, 197, 21, 84, 115, 41, 191, 18, 210, 175, 61, 26, 128, 254, 190, 203, 100, 96, 81, 158, 31, 0, 0, 84, 115, 41, 191, 18, 210, 175, 61, 26, 128, 254, 190, 156, 100, 255, 109, 158, 31, 0, 0, 84, 115, 41, 191, 18, 210, 175, 61, 26, 128, 254, 190, 89, 127, 127, 63, 158, 31, 0, 0, 84, 115, 41, 191, 18, 210, 175, 61, 26, 128, 254, 190, 37, 127, 127, 63, 158, 31, 0, 0, 189, 66, 43, 191, 202, 86, 161, 61, 26, 128, 254, 190, 129, 37, 127, 63, 0, 0, 0, 0, 189, 66, 43, 191, 202, 86, 161, 61, 26, 128, 254, 190, 156, 53, 30, 108, 0, 0, 0, 0, 189, 66, 43, 191, 202, 86, 161, 61, 26, 128, 254, 190, 129, 89, 127, 63, 0, 0, 0, 0, 189, 66, 43, 191, 202, 86, 161, 61, 26, 128, 254, 190, 156, 100, 125, 45, 0, 0, 0, 0, 176, 2, 44, 63, 202, 86, 161, 61, 71, 225, 250, 190, 100, 53, 36, 15, 0, 60, 30, 33, 176, 2, 44, 63, 202, 86, 161, 61, 71, 225, 250, 190, 127, 37, 127, 63, 0, 60, 30, 33, 176, 2, 44, 63, 202, 86, 161, 61, 71, 225, 250, 190, 89, 37, 127, 63, 0, 60, 30, 33, 176, 2, 44, 63, 202, 86, 161, 61, 71, 225, 250, 190, 127, 0, 0, 1, 0, 60, 30, 33, 84, 115, 41, 63, 202, 86, 161, 61, 0, 0, 0, 191, 127, 127, 127, 63, 240, 59, 0, 0, 84, 115, 41, 63, 202, 86, 161, 61, 0, 0, 0, 191, 89, 127, 127, 63, 240, 59, 0, 0, 84, 115, 41, 63, 202, 86, 161, 61, 0, 0, 0, 191, 100, 100, 91, 64, 240, 59, 0, 0, 84, 115, 41, 63, 202, 86, 161, 61, 0, 0, 0, 191, 127, 89, 127, 63, 240, 59, 0, 0, 84, 115, 41, 63, 173, 209, 181, 61, 71, 225, 250, 190, 37, 127, 127, 63, 240, 59, 30, 33, 84, 115, 41, 63, 173, 209, 181, 61, 71, 225, 250, 190, 0, 127, 127, 63, 240, 59, 30, 33, 84, 115, 41, 63, 173, 209, 181, 61, 71, 225, 250, 190, 53, 100, 91, 47, 240, 59, 30, 33, 84, 115, 41, 63, 173, 209, 181, 61, 71, 225, 250, 190, 37, 89, 89, 44, 240, 59, 30, 33, 189, 66, 43, 63, 202, 86, 161, 61, 26, 128, 254, 190, 100, 100, 91, 64, 0, 60, 0, 0, 189, 66, 43, 63, 202, 86, 161, 61, 26, 128, 254, 190, 127, 89, 127, 63, 0, 60, 0, 0, 189, 66, 43, 63, 202, 86, 161, 61, 26, 128, 254, 190, 100, 53, 36, 15, 0, 60, 0, 0, 189, 66, 43, 63, 202, 86, 161, 61, 26, 128, 254, 190, 127, 37, 127, 63, 0, 60, 0, 0, 179, 237, 42, 63, 198, 41, 173, 61, 7, 214, 253, 190, 100, 100, 91, 64, 253, 59, 197, 21, 179, 237, 42, 63, 198, 41, 173, 61, 7, 214, 253, 190, 53, 100, 91, 47, 253, 59, 197, 21, 179, 237, 42, 63, 198, 41, 173, 61, 7, 214, 253, 190, 100, 53, 36, 15, 253, 59, 197, 21, 84, 115, 41, 63, 18, 210, 175, 61, 26, 128, 254, 190, 89, 127, 127, 63, 240, 59, 0, 0, 84, 115, 41, 63, 18, 210, 175, 61, 26, 128, 254, 190, 37, 127, 127, 63, 240, 59, 0, 0, 84, 115, 41, 63, 18, 210, 175, 61, 26, 128, 254, 190, 100, 100, 127, 63, 240, 59, 0, 0, 84, 115, 41, 63, 18, 210, 175, 61, 26, 128, 254, 190, 53, 100, 90, 48, 240, 59, 0, 0, 189, 66, 43, 63, 18, 210, 175, 61, 72, 225, 250, 190, 53, 100, 92, 45, 0, 60, 30, 33, 189, 66, 43, 63, 18, 210, 175, 61, 72, 225, 250, 190, 37, 89, 89, 44, 0, 60, 30, 33, 189, 66, 43, 63, 18, 210, 175, 61, 72, 225, 250, 190, 100, 53, 127, 63, 0, 60, 30, 33, 189, 66, 43, 63, 18, 210, 175, 61, 72, 225, 250, 190, 89, 37, 219, 148, 0, 60, 30, 33 ),
"array_index_data": PoolByteArray( 10, 0, 135, 0, 27, 0, 10, 0, 114, 0, 135, 0, 90, 0, 172, 0, 61, 0, 90, 0, 193, 0, 172, 0, 6, 0, 86, 0, 65, 0, 6, 0, 31, 0, 86, 0, 119, 0, 198, 0, 144, 0, 119, 0, 169, 0, 198, 0, 38, 0, 192, 0, 84, 0, 38, 0, 142, 0, 192, 0, 3, 0, 16, 0, 13, 0, 3, 0, 24, 0, 16, 0, 5, 0, 17, 0, 19, 0, 5, 0, 15, 0, 17, 0, 9, 0, 18, 0, 26, 0, 9, 0, 20, 0, 18, 0, 29, 0, 43, 0, 41, 0, 29, 0, 50, 0, 43, 0, 33, 0, 44, 0, 46, 0, 33, 0, 42, 0, 44, 0, 35, 0, 45, 0, 52, 0, 35, 0, 48, 0, 45, 0, 57, 0, 70, 0, 67, 0, 57, 0, 78, 0, 70, 0, 59, 0, 72, 0, 74, 0, 59, 0, 69, 0, 72, 0, 63, 0, 71, 0, 80, 0, 63, 0, 73, 0, 71, 0, 81, 0, 99, 0, 95, 0, 81, 0, 106, 0, 99, 0, 87, 0, 98, 0, 103, 0, 87, 0, 93, 0, 98, 0, 91, 0, 97, 0, 104, 0, 91, 0, 102, 0, 97, 0, 111, 0, 124, 0, 121, 0, 111, 0, 132, 0, 124, 0, 113, 0, 126, 0, 128, 0, 113, 0, 123, 0, 126, 0, 117, 0, 125, 0, 134, 0, 117, 0, 127, 0, 125, 0, 137, 0, 151, 0, 147, 0, 137, 0, 160, 0, 151, 0, 139, 0, 153, 0, 156, 0, 139, 0, 149, 0, 153, 0, 145, 0, 152, 0, 161, 0, 145, 0, 154, 0, 152, 0, 165, 0, 178, 0, 175, 0, 165, 0, 186, 0, 178, 0, 167, 0, 179, 0, 181, 0, 167, 0, 177, 0, 179, 0, 171, 0, 180, 0, 188, 0, 171, 0, 182, 0, 180, 0, 189, 0, 207, 0, 203, 0, 189, 0, 214, 0, 207, 0, 195, 0, 205, 0, 210, 0, 195, 0, 201, 0, 205, 0, 199, 0, 206, 0, 212, 0, 199, 0, 211, 0, 206, 0, 62, 0, 14, 0, 4, 0, 62, 0, 79, 0, 14, 0, 77, 0, 1, 0, 12, 0, 77, 0, 55, 0, 1, 0, 7, 0, 39, 0, 32, 0, 7, 0, 21, 0, 39, 0, 22, 0, 28, 0, 40, 0, 22, 0, 11, 0, 28, 0, 34, 0, 94, 0, 88, 0, 34, 0, 47, 0, 94, 0, 49, 0, 83, 0, 96, 0, 49, 0, 37, 0, 83, 0, 85, 0, 76, 0, 64, 0, 85, 0, 101, 0, 76, 0, 100, 0, 60, 0, 75, 0, 100, 0, 89, 0, 60, 0, 163, 0, 131, 0, 109, 0, 163, 0, 174, 0, 131, 0, 176, 0, 116, 0, 133, 0, 176, 0, 166, 0, 116, 0, 115, 0, 158, 0, 136, 0, 115, 0, 129, 0, 158, 0, 130, 0, 143, 0, 159, 0, 130, 0, 118, 0, 143, 0, 141, 0, 215, 0, 191, 0, 141, 0, 157, 0, 215, 0, 155, 0, 200, 0, 213, 0, 155, 0, 146, 0, 200, 0, 194, 0, 183, 0, 173, 0, 194, 0, 208, 0, 183, 0, 209, 0, 168, 0, 184, 0, 209, 0, 197, 0, 168, 0, 92, 0, 202, 0, 196, 0, 92, 0, 105, 0, 202, 0, 107, 0, 190, 0, 204, 0, 107, 0, 82, 0, 190, 0, 138, 0, 51, 0, 30, 0, 138, 0, 148, 0, 51, 0, 150, 0, 36, 0, 53, 0, 150, 0, 140, 0, 36, 0, 8, 0, 122, 0, 112, 0, 8, 0, 25, 0, 122, 0, 23, 0, 110, 0, 120, 0, 23, 0, 2, 0, 110, 0, 170, 0, 68, 0, 58, 0, 170, 0, 187, 0, 68, 0, 185, 0, 56, 0, 66, 0, 185, 0, 164, 0, 56, 0, 54, 0, 108, 0, 0, 0, 54, 0, 162, 0, 108, 0 ),
"blend_shape_data": [  ],
"format": 2194711,
"index_count": 324,
"material": SubResource( 1 ),
"primitive": 4,
"skeleton_aabb": [  ],
"vertex_count": 216
}

[node name="wall_photo" instance=ExtResource( 1 )]
transform = Transform( 2, 0, 0, 0, 2, 0, 0, 0, 2, 0, 0, 0 )

[node name="IMG_20230202_082423016" parent="." index="0"]
mesh = SubResource( 2 )
